DE_V_OBJ	bilden Ausnahme	97
DE_V_OBJ	weisen Weg	31
DE_V_OBJ	sprechen Sprache	25
DE_V_OBJ	bekommen Kind	93
DE_V_OBJ	tragen Verantwortung	75
DE_V_OBJ	leisten Folge	86
DE_ADJ_NN	eng Beziehung	67
DE_ADJ_NN	l&auml;ndlich Gebiet	100
DE_V_OBJ	tragen Sorge	68
DE_V_SUBJ	gelten Grundsatz	96
DE_V_OBJ	trinken Bier	100
DE_ADJ_NN	t&auml;glich Leben	85
DE_ADJ_NN	rot-gr&uuml;n Regierung	19
DE_ADJ_NN	jung Frau	100
DE_V_SUBJ	kommen Zeit	83
DE_V_OBJ	machen Anfang	90
DE_ADJ_NN	radioaktiv Abfall	100
DE_ADJ_NN	neu Auto	96
DE_V_SUBJ	leben Familie	99
DE_V_SUBJ	entscheiden Senat	98
DE_ADJ_NN	gro%szlig; Liebe	57
DE_ADJ_NN	autofrei Wohnen	94
DE_ADJ_NN	rot Karte	80
DE_ADJ_NN	rot Fade	0
DE_ADJ_NN	informell Sektor	68
DE_ADJ_NN	vielf&auml;ltig Angebot	100
DE_V_OBJ	packen Koffer	69
DE_ADJ_NN	erst Rang	41
DE_ADJ_NN	sofortig Beschwerde	99
DE_V_SUBJ	sagen Wort	21
DE_ADJ_NN	Berliner Mauer	95
DE_ADJ_NN	privat Einzelunterricht	100
DE_ADJ_NN	zentral Lage	89
DE_V_OBJ	nehmen Ende	81
DE_V_OBJ	gewinnen Zeit	51
DE_ADJ_NN	geringf&uuml;gig Besch&auml;ftigung	70
DE_V_OBJ	vertreten Ansicht	79
DE_V_SUBJ	bestehen Chance	100
DE_V_OBJ	geben Hoffnung	80
DE_ADJ_NN	technisch Entwicklung	100
DE_ADJ_NN	komplex System	84
DE_V_SUBJ	sagen Arzt	100
DE_V_SUBJ	erkennen Mensch	96
DE_V_SUBJ	beantragen Beklagte	91
DE_ADJ_NN	offen T&uuml;r	9
DE_ADJ_NN	sch&ouml;n Seite	42
DE_ADJ_NN	heilig Messe	73
DE_V_OBJ	tragen Frucht	47
DE_V_OBJ	leisten Vorschub	70
DE_V_SUBJ	bestehen Aufgabe	100
DE_V_SUBJ	sagen Vorsitzende	96
DE_V_OBJ	gehen Weg	30
DE_ADJ_NN	letzt Wort	37
DE_V_OBJ	passieren Revue	26
DE_V_OBJ	singen Lied	32
DE_V_SUBJ	bauen Haus	100
DE_V_OBJ	verstehen Wort	93
DE_ADJ_NN	menschlich Organismus	100
DE_ADJ_NN	organisiert Kriminalit&auml;t	79
DE_V_OBJ	finden Beachtung	100
DE_V_OBJ	suchen Weg	44
DE_ADJ_NN	&auml;therisch &Ouml;l	100
DE_ADJ_NN	letzt Stunde	94
DE_V_OBJ	schreiben Brief	99
DE_V_OBJ	legen Wert	71
DE_ADJ_NN	klein Insel	80
DE_V_OBJ	sparen Geld	100
DE_ADJ_NN	gro%szlig; Wurf	5
DE_V_OBJ	verlieren Leben	72
DE_ADJ_NN	allgemein Hochschulreif	88
DE_V_SUBJ	finden Kind	60
DE_V_OBJ	geben Rat	85
DE_V_OBJ	spielen Musik	70
DE_V_SUBJ	sagen Sprecher	100
DE_ADJ_NN	erst Klasse	84
DE_ADJ_NN	heil Welt	8
DE_V_OBJ	finden Stelle	96
DE_V_SUBJ	schlagen Herz	63
DE_V_OBJ	geben Gas	61
DE_V_OBJ	erheben Anspruch	93
DE_V_OBJ	schreiben Geschichte	42
DE_ADJ_NN	hart Arbeit	55
DE_ADJ_NN	neu Bundesland	93
DE_ADJ_NN	frei Lauf	1
DE_V_SUBJ	entstehen Arbeitsplatz	97
DE_V_OBJ	nehmen Platz	49
DE_ADJ_NN	lieb Gott	44
DE_V_SUBJ	lernen Kind	100
DE_V_OBJ	zahlen Steuer	99
DE_ADJ_NN	elektromagnetisch Welle	91
DE_V_OBJ	erreichen Punkt	55
DE_V_SUBJ	zeigen Bild	66
DE_V_OBJ	finden Ruhe	90
DE_V_SUBJ	beginnen Krieg	100
DE_ADJ_NN	fr&uuml;h Neuzeit	89
DE_ADJ_NN	schwarz Schaf	1
DE_V_OBJ	halten Schritt	14
DE_V_SUBJ	entstehen Eindruck	88
DE_V_OBJ	lassen Raum	23
DE_ADJ_NN	sozial Netz	21
DE_V_OBJ	setzen Ende	56
DE_ADJ_NN	gut Wetter	100
DE_V_OBJ	machen Name	7
DE_ADJ_NN	letzt Wochenende	75
DE_ADJ_NN	klein Kind	99
DE_ADJ_NN	kritisch Stimme	17
DE_V_OBJ	zeigen Gesicht	23
DE_ADJ_NN	brennbar Fl&uuml;ssigkeit	100
DE_ADJ_NN	ganz Sache	71
DE_V_SUBJ	stehen Frau	64
DE_V_SUBJ	kommen Leute	99
DE_V_SUBJ	glauben Mensch	97
DE_V_OBJ	geben Menge	84
DE_V_OBJ	nehmen Bezug	89
DE_V_OBJ	stellen Antrag	89
DE_V_SUBJ	sterben Kind	100
DE_V_SUBJ	spielen Kind	95
DE_V_SUBJ	entscheiden Gericht	99
DE_ADJ_NN	eigen Rechnung	92
