compound_lemma	compound_surface	compound_lemmapos	headLemma	modifierLemma	nAnnot	avgHead	stdevHead	avgModifier	stdevModifier	compositionality	stdevHeadModifier	equivalents
ancient_history	ancient_history	ancient/a_history/n	history	ancient	15	2.9333	1.9809	2.1333	1.3020	2.1333	1.3020	old news(6);in the past(3);bygone days(2);past(2);history(2);forever ago(1);fossil ages(1);lost(1);extended time(1);distant(1);ancient knowledge(1);older history(1);past history(1);long time ago(1);ancient times(1);historical relic(1);outdated(1);forgotten(1);useless(1);irrelevant(1);old history(1);b.c(1);water under the bridge(1);recent news(1)
armchair_critic	armchair_critic	armchair/a_critic/n	critic	armchair	15	4.4667	1.4573	0.8667	0.9904	1.3333	1.1127	armchair quarterback(3);hypocrite(2);backseat driver(2);critic(2);bystander(2);armchair expert(1);ineffective critic(1);inactive critic(1);lazy(1);judgemental(1);armchair academic(1);unqualified expert(1);peanut gallery(1);reviewer(1);armchair general(1);unprofessional critic(1);complainer(1);non participant watcher(1);non participating commenter(1);hypercritical(1);monday morning quarterback(1);back seat driver(1);sympathizer(1);keyboard critic(1);critic from a distance(1);non involved critic(1)
baby_buggy	baby_buggy	baby/a_buggy/n	buggy	baby	15	4.0000	1.0690	4.6667	0.8997	4.1333	1.0601	stroller(10);baby carriage(9);baby stroller(5);pram(5);child carriage(1);perambulator(1);baby carrier(1);cart(1)
bad_hat	bad_hat	bad/a_hat/n	hat	bad	15	0.0000	0.0000	4.2000	1.3202	0.4667	0.7432	criminal(4);trouble maker(3);bad person(2);no good(2);bad guy(2);black hat(1);crook(1);mischievous person(1);bad egg(1);crasher(1);thug(1);not nice person(1);asshole(1);motherfucker(1);unscrupulous(1);bad man(1);unfavorable(1);bad form(1);con man(1);malcontent(1);jerk(1);vagabond(1);social pariah(1);bad news(1);mischief maker(1);hellion(1);bad apple(1);villian(1)
benign_tumour	benign_tumour	benign/a_tumour/n	tumour	benign	14	5.0000	0.0000	4.7857	0.4258	4.9286	0.2673	benign growth(4);growth(3);non cancerous tumour(2);benign cancer(2);nonmalignant tumor(2);nonmetastatic tumour(1);noncancerous tumour(1);non cancerous tumor(1);harmless tumor(1);negative tumor(1);non fatal tumor(1);noninvading bump(1);non cancerous(1);lump(1);mass(1);cancer(1);cancerous growth(1);non malignant tumour(1);non carcihogenic tumor(1);non malignent tumor(1);benign lump(1);noncancerous tumor(1);benign tissue(1);benign neoplasm(1)
big_fish	big_fish	big/a_fish/n	fish	big	17	0.3529	0.8618	2.5294	1.8748	0.5294	0.7998	important person(4);big shot(3);top dog(3);big kahuna(2);head cheese(1);top gun(1);head honcho(1);big cheese(1);powerful person(1);professional(1);high paid person(1);in charge(1);loud person(1);visible(1);big deal(1);better things(1);more important things(1);bigger problems(1);big account(1);famous(1);person on renown(1);large figure(1);character(1);hot shot(1);boss(1);vip(1);whale(1);successful person(1);high ranking people(1);more important(1);more important person(1);big player(1)
birth_rate	birth_rate	birth/a_rate/n	rate	birth	18	4.7222	0.7519	4.6667	0.7670	4.6667	0.4851	fertility rate(3);number of births(3);population rate(3);population(2);growth rate(2);rate of reproduction(1);babies born(1);units of birth(1);live births(1);number born(1);number of newborns(1);people born compared to people living(1);rate of children born(1);amount of people being born(1);re population(1);birthing rate(1);birth level(1);replacement rate(1);births per 100000(1);births per year(1);speed of birth(1);population increase(1);population multiplication level(1);incidence of birth(1);rate of population change(1);reproduction rate(1);viable pregnancies(1);population rate growth(1);new birth numbers(1);birth(1);rate of birth(1);birth speed(1);births(1);population growth(1)
black_cherry	black_cherry	black/a_cherry/n	cherry	black	14	4.7143	0.8254	3.1429	2.1070	3.5714	1.3425	cherry(6);dark cherry(5);wild cherry(4);fruit(3);type of cherry(1);berry(1);fruit flavored(1);pitted fruit(1);purple cherry(1);rum cherry(1);black fruit(1);royal chery(1);ripe cherry(1);dark red cherry(1);small red pitted fruit(1);cherry flavor(1);rich cherry(1);mountain cherry(1)
bow_tie	bow_tie	bow/a_tie/n	tie	bow	13	4.9231	0.2774	4.5385	0.8771	4.7692	0.5991	tie(5);necktie(3);black tie(3);cravat(2);bow of cloth(1);tied bow(1);tied scarf(1);neck tie(1);neck garment(1);clothing accessory(1);cravate(1);knotted tie(1);white tie(1);bow(1);knot with two loops(1);ribbon of fabric(1);short tie in a bow(1);tie that doesn't hang(1);knot(1);bow knot tie(1);pin wheel tie(1)
brain_teaser	brain_teaser	brain/a_teaser/n	teaser	brain	16	2.4375	1.4127	3.5625	1.3150	2.8125	1.1673	puzzle(9);riddle(6);logic puzzle(2);challenge(2);logic teaser(1);brain twister(1);thought provoker(1);hard problem(1);difficult solution(1);brain drainer(1);mind boggleing(1);hard puzzle(1);cant figure out.(1);mind boggle(1);education challenge(1);tricky problem(1);hard game(1);mind game(1);mind boggler(1);brain game(1);mystery(1);brain execise(1);mind bender(1)
busy_bee	busy_bee	busy/a_bee/n	bee	busy	22	0.3636	0.7267	4.5455	0.8579	0.6818	0.7799	go getter(5);busy person(5);busy body(5);busy beaver(3);hard worker(3);busy(2);doer(2);energetic person(1);always moving(1);occupied(1);tasked(1);busy worker(1);popular(1);drone(1);slave(1);workaholic(1);hyper(1);busybody(1);always busy(1);industrious person(1);snoop(1);sociable person(1);nosy(1);hardworker(1);dynamo(1);active person(1);eager beaver(1);busy productive person(1);someone who moves around(1);being overactive(1);nonstop(1);preoccupied person(1);worker(1)
carpet_bombing	carpet_bombing	carpet/a_bombing/n	bombing	carpet	15	4.9333	0.2582	0.4000	0.6325	1.0000	1.0000	blanket bombing(3);intense bombing(3);indiscriminate bombing(2);area bombing(2);dense bombing(1);devastating attack(1);terrorist attack(1);missle raid(1);bomb drop(1);mass bombing(1);massive bombing(1);firestorm(1);airstrike(1);scattering(1);air strike(1);air support(1);complete destruction(1);total annihilation(1);non targeted bombing(1);continual bombing(1);aerial bombing(1);large bombing(1);air artillery(1);saturation bombing(1);bomb dropping(1);bombing(1);thorough bombing(1);location bombing(1)
cellular_phone	cellular_phone	cellular/a_phone/n	phone	cellular	15	5.0000	0.0000	3.5333	1.4075	4.2000	1.0142	mobile phone(7);cell phone(4);smart phone(4);cell(3);cellphone(3);wireless phone(2);portable phone(1);individual phone(1);mobile device(1);electronic accessory(1);telephone(1);smartphone(1);iphone(1);phone(1);talking(1);texting(1);mobile(1);cellular device(1)
close_call	close_call	close/a_call/n	call	close	15	0.8667	1.2459	3.2667	1.7915	1.4667	1.4075	near miss(6);narrow escape(4);close shave(3);almost happened(2);near death(2);close(1);nearby(1);tight(1);cutting it close(1);almost happening(1);close to happening(1);narrow exscape(1);almost turned bad(1);accident(1);near death experience(1);immediate shave(1);close one(1);near squeak(1);tight squeeze(1);cliffhanger(1);wake up call(1);close escape(1);scary situation(1);hard to decide(1);near(1)
closed_book	closed_book	closed/a_book/n	book	closed	15	0.4000	1.0556	1.8667	1.7674	0.2667	0.4577	mystery(6);unknown(5);riddle(2);enigma(2);inaccessible(1);off limits(1);unattainable(1);not understandable(1);ignorance(1);no knowledge(1);closed case(1);done deal(1);unreadable(1);inscrutible(1);unfathomable(1);tough nut(1);tight lipped(1);solid case(1);impenetrable subject(1);puzzle(1);closed minded(1);ignorant(1);unfamiliar(1);inaccessible subject(1)
computer_program	computer_program	computer/a_program/n	program	computer	16	4.7500	0.5774	4.9375	0.2500	4.8125	0.4031	software(7);application(6);computer software(3);code(2);operating system(2);computer application(1);instructions(1);software program(1);hardware program(1);computer operating process(1);algorythm(1);system(1);program(1);patch(1);algorithm(1);command(1);digital code(1);executable file(1);computer codes(1);programmed to work a certain way(1);app(1);computer game(1);disk(1)
con_artist	con_artist	con/a_artist/n	artist	con	19	1.1053	0.9941	4.4737	1.0203	1.9474	1.3112	con man(10);criminal(5);scammer(4);thief(4);trickster(3);scam artist(2);swindler(2);liar(2);conman(1);great actor(1);manipulator(1);crook(1);fraud(1);theif(1);forger(1);sting man(1);malcontent(1);grifter(1);hustler(1);deceit artist(1)
cooking_stove	cooking_stove	cooking/a_stove/n	stove	cooking	15	4.7333	0.5936	4.8667	0.3519	4.8000	0.4140	stove(7);oven(5);range(3);cook top(2);electric stove(2);burners(2);cook stove(1);stove oven(1);cooking device(1);crock pot(1);stovetop(1);cooking top(1);stove top(1);gas stove(1);dutch oven(1);cooking oven(1);kitchen stove(1);portable stove(1);kitchen cooktop(1);burner(1);cooker(1)
cotton_candy	cotton_candy	cotton/a_candy/n	candy	cotton	18	4.2778	0.9583	1.0000	1.0847	1.6111	0.8498	spun sugar(8);candy floss(5);fairy floss(2);pink fluff(2);confection(2);fluffy candy(2);candy puff(1);sugar clouds.(1);fluffed sugar(1);sweets(1);treat(1);dessert(1);sugary food(1);confection treat(1);cloud candy(1);sugar on stick(1);simple treats(1);spun candy(1);cotton ball candy(1);sugary treat(1);soft candy(1);sugar wool(1);fluffy confection(1);cottony soft candy(1)
critical_review	critical_review	critical/a_review/n	review	critical	16	4.7500	0.4472	3.5000	1.6330	4.2500	0.8563	critique(5);critical analysis(2);thorough review(2);analysis(2);examination(2);important review(1);critical cover(1);critical judgment(1);text evaluation(1);grading(1);scholarly review(1);academic review(1);tough review(1);in depth look(1);critic's opinion(1);negative review(1);criticism(1);review(1);study review(1);thoughtful review(1);meaningful summary(1);peer review(1);assesment(1);intense scrutiny(1);critical assessment(1);analytical review(1);thorough assesment(1);take a close look at(1);report(1)
dead_end	dead_end	dead/a_end/n	end	dead	18	4.1667	1.1504	0.2778	0.7519	1.1111	1.1827	no outlet(6);cul de sac(4);impasse(1);blockage(1);end of the line(1);closed off(1);end of road(1);without an outlet(1);road with one end(1);one way road(1);no other street(1);end(1);close(1);street ends(1);blocked in(1);ending(1);road's end(1);one way(1);point of no return(1);standstill(1);checkmate(1);roadblock(1);blind alley(1);roads end(1);impenetrable(1);no access(1);road block(1);end of the road(1);road end(1);dud(1);dead lead(1);no exit(1)
dirty_money	dirty_money	dirty/a_money/n	money	dirty	17	4.1765	1.6292	2.0000	1.4577	2.1765	1.3339	drug money(4);ill gotten gains(2);money obtained illegally(2);criminal money(2);stolen(2);stolen money(2);laundered money(1);illegal profit(1);crime money(1);criminally earned cash(1);illegally gained money(1);felonious profits(1);illegal money(1);hidden funds(1);illegal gains(1);ill got gains(1);money laundering(1);ponzi scheme(1);bad money(1);loot(1);dirty funds(1);unlawful money(1);dirty, as in tainted(1);bribe(1);pilfered funds(1);unethical money(1);ill gained(1);illegally earned tender(1);embezzled(1);unearned money(1);corrupt money(1);stolen property(1);earned illegally(1);counterfeit money(1)
dirty_word	dirty_word	dirty/a_word/n	word	dirty	21	4.1429	1.4243	2.0000	1.3784	2.4762	1.7210	curse word(7);bad word(4);cuss word(4);taboo(4);swear word(3);profanity(3);foul language(3);cursing(2);bad language(1);expletive(1);words not said(1);word you don't want to mention(1);gross word(1);insult(1);expletitive(1);curse(1);inappropriate language(1);gutter talk(1);bad words(1);swer word(1);taboo subject(1);unpleasant option(1);curse words(1);off limits(1);off limit word(1);unattractive word(1);profainity(1);obscene(1);bad worse(1);naughty word(1);inappropriate word(1);swear(1)
disc_jockey	disc_jockey	disc/a_jockey/n	jockey	disc	18	0.8333	1.2485	2.2778	1.6017	1.1111	1.1318	dj(9);music player(2);entertainer(2);dee jay(1);disc scratcher(1);broadcaster(1);presenter(1);announces music played(1);music radio host(1);record player(1);music spinner(1);record spinner(1);artist(1);musician(1);person who plays music(1);mc(1);radio station employee(1);radio performer(1);disc spinner(1);party(1);music(1);deejay(1);spin doctor(1);mastet of ceremony(1);emcee(1);master of ceremonies(1);music host(1);music playing host(1);music mixing proffesional(1);host(1);dic spinner(1);music maker(1)
divine_service	divine_service	divine/a_service/n	service	divine	15	3.9333	0.9612	3.9333	1.4864	3.4667	1.3020	church service(8);mass(5);religious service(3);eucharistic liturgy(2);worship(2);divine calling(1);worship service(1);religious meeting(1);spiritual meeting(1);christian cult(1);serving of god(1);prayer service(1);church(1);ceremony(1);sermon(1);worshipping for god(1);gathering of christians(1);easter service(1);lutheran eucharist mass(1)
dry_land	dry_land	dry/a_land/n	land	dry	19	4.8421	0.3746	3.9474	1.4710	4.0526	1.1773	land(4);soil(3);ground(3);earth(3);dry ground(2);arid land(2);not water(2);dessert(2);dry earth(1);land without water(1);turf(1);surface(1);continent(1);not wet land(1);dry area(1);landlocked area(1);desert(1);dry terrain(1);island(1);shore line(1);high and dry(1);shore(1);dry dock(1);dessert land(1);cracked land(1);terrestrial(1);unfarmable land(1);not in water(1);on the ground(1);terrain(1);dry environment(1);dry habitat(1)
dry_wall	dry_wall	dry/a_wall/n	wall	dry	16	4.6250	0.8851	3.7500	1.2910	3.7500	1.1832	wallboard(4);plasterboard(3);plaster board(3);plaster wall(2);wall(2);stone wall(2);wall board(2);plaster(2);wall covering(1);cover(1);foundation(1);building material(1);building wall(1);dry sheet rock(1);concrete(1);insolation(1);putty(1);masonry(1);sheet rock(1);gypsum wall(1);sheetrock(1);gypsum(1)
dust_storm	dust_storm	dust/a_storm/n	storm	dust	16	4.0625	1.3889	4.3125	1.1955	4.1875	1.3769	sand storm(6);sandstorm(4);dust cloud(4);dust bowl(2);dust devil(2);haboob(2);desert storm(1);blowing dirt(1);kicking up dust(1);sand flying(1);sand fog(1);tornadoe(1);flying debris(1);dust wind(1);dirty wind(1);strong winds(1);cyclone(1);simoom(1);duster(1);dust tornado(1)
eager_beaver	eager_beaver	eager/a_beaver/n	beaver	eager	19	0.0000	0.0000	4.3684	1.3000	0.1579	0.3746	eager person(5);go getter(4);impatient person(2);enthusiastic person(2);excited(2);active person(1);busy bee(1);eager to do something(1);can't wait to do something(1);serious(1);dedicated(1);eager worker(1);good worker(1);fan(1);hardworking(1);interestd(1);hard hitter(1);busybody(1);overly zealous(1);very enthusiastic(1);impulsive(1);overly ready(1);helpfull person(1);doer(1);excited worker(1);person ready to do something(1);self starter(1);excited person(1);hard worker(1);enthusiastic(1);motivated person(1);someone who is excited(1);someone can't wait(1);anxious(1);well prepared(1)
economic_aid	economic_aid	economic/a_aid/n	aid	economic	16	4.5000	0.5164	4.0625	1.1236	4.4375	0.6292	financial aid(6);money(4);economic assistance(2);welfare(2);monetary assistance(2);economic relief(1);monetary aid(1);money help(1);free money(1);foreign aid(1);economic support(1);economic incentives(1);stimulus(1);financial assistance(1);economic transaction(1);college tuition(1);financial support(1);economic help(1);financial help(1);monetary gift(1);distribution of cash(1);charity(1);help(1);funding(1);assistance(1);relief funds(1)
elbow_grease	elbow_grease	elbow/a_grease/n	grease	elbow	13	0.1538	0.5547	0.9231	0.7596	0.4615	0.5189	hard work(7);effort(5);work(2);strength(2);one's own sweat(1);man power(1);back into it(1);physical labor(1);extra effort(1);more work(1);force(1);brute force(1);hard manual labor(1);endurance and dilligence(1);application of force(1);physical effort(1);vigor(1)
elbow_room	elbow_room	elbow/a_room/n	room	elbow	21	0.4286	0.9258	1.2381	1.4108	0.3810	0.5896	space(10);leeway(6);opportunity(3);room(3);breathing room(3);personal space(3);wiggle room(2);breathing space(2);place(1);leverage(1);possible(1);free space(1);open negotiation(1);extra space(1);personal room(1);margin(1);personal bubble(1);places to move(1);elbow space(1);area(1);time and occasion(1);allowance(1);latitude(1);buffer(1);freedom(1)
entrance_hall	entrance_hall	entrance/a_hall/n	hall	entrance	15	4.1333	0.9155	4.8667	0.3519	4.4000	0.7368	foyer(7);lobby(5);grand hall(2);entrance room(2);entry(2);entry hall(1);front area(1);doorway(1);formal entrance(1);hallway(1);main entrance(1);main hall(1);vestibule(1);entrance(1);entryway(1);great hall(1);reception area(1);front hall(1);entranceway(1);atrium(1);entry way(1);front(1)
eternal_rest	eternal_rest	eternal/a_rest/n	rest	eternal	15	2.6000	1.2984	4.7333	0.5936	3.3333	1.2344	death(11);eternal sleep(2);end of life(2);pushing up daisies(1);6 feet under(1);final rest(1);afterlife(1);peaceful afterlife(1);heavenly peace(1);eternal peace(1);rest in peace(1);final sleep(1);tomb(1);burial place(1);heaven(1);dirt nap(1);after life(1);coma(1);long rest(1);big sleep(1);shuffling off of the mortal coil(1);demise(1)
fish_story	fish_story	fish/a_story/n	story	fish	15	4.8000	0.4140	0.9333	1.0998	1.1333	1.0601	tall tale(6);exaggeration(3);lie(2);fish tale(2);tale(2);exaggerated story(2);imbellished story(1);smells fishy(1);big story(1);incredible(1);white lie(1);extraggerated story(1);story(1);far fetched story(1);hyperbole(1);fishy, as in doubtful(1);big lie(1);overstatement(1);trumped up story(1);tall tell(1);yarn(1);false story(1);exaggorated story(1)
flower_child	flower_child	flower/a_child/n	child	flower	16	0.5000	0.7303	1.0625	0.7719	0.3750	0.5000	hippie(10);free spirit(6);hippy(4);bohemian(2);peace demonstrator(1);nonconformist(1);pot smoker(1);careless(1);happy without goals(1);simple person(1);stoner(1);yuppie(1);wanderer(1);moon child(1);pacifist(1);idealist(1);hippies(1);beatnik(1)
food_market	food_market	food/a_market/n	market	food	15	4.1333	0.8338	4.8000	0.5606	4.3333	0.8165	grocery store(5);food sector(3);farmers' market(2);supermarket(2);food store(1);produce market(1);food trade(1);food commodities(1);grocery stores(1);stock market(1);alimentary channels(1);nutrition choice(1);market place(1);market(1);food arena(1);farmer's market(1);food business(1);grocer(1);farmers market(1);food mart(1);mart(1);commercial market(1)
foot_soldier	foot_soldier	foot/a_soldier/n	soldier	foot	19	3.3684	1.9210	1.3158	1.3355	1.9474	1.2681	infantry(6);infantryman(4);worker(3);soldier(3);grunt(2);recruit soldier(1);newb soldier(1);ground troop(1);low level(1);representative(1);common soldier(1);proletriat(1);worker bee(1);warrior(1);average fighter(1);newbie(1);infantrymen(1);subordinate(1);pawn(1);infantry soldier(1);army man(1);peon(1);fodder(1);ground troops(1);ground soldier(1);private(1);front man(1);foot work(1);low level worker(1);bottom of to dam pole(1);drone(1);peasant(1)
front_man	front_man	front/a_man/n	man	front	19	1.5789	1.7100	2.4211	1.4650	1.5789	1.3045	leader(8);representative(3);spokesman(3);figure head(2);speaker(2);singer(2);lead singer(2);face(1);agent(1);face of product or company(1);point man(1);boss(1);organization head(1);head(1);poster boy(1);figurehead(1);celebrity(1);lead speaker(1);group leader(1);nominee(1);cover(1);head man(1);lead representative(1);spokesperson(1);image(1);person interacting with audience(1);conductor(1);lead man(1);center(1)
goose_egg	goose_egg	goose/a_egg/n	egg	goose	20	0.5000	0.8885	0.3000	0.6569	0.4000	0.7539	bump(12);knot(7);lump(7);swelling(4);bruise(4);pimple(2);sore spot(1);loosing score(1);null(1);injury(1);blackhead(1);bird egg(1);swollen area(1);temporary bump(1);boil(1)
grey_matter	grey_matter	grey/a_matter/n	matter	grey	17	3.4706	1.2805	2.1765	1.0744	2.2353	1.2005	brain(12);intelligence(4);mind(3);thinking(2);brains(2);brain matter(2);cerebrum(2);head(2);noodle(1);noggin(1);bean(1);right brain(1);thought process(1);use your head(1);body of cells(1);memory(1);brain tissue(1);brain power(1);brain cells(1);iq(1);brainpower(1);creativity(1)
guinea_pig	guinea_pig	guinea/a_pig/n	pig	guinea	17	0.4706	0.7174	0.4706	0.7174	0.2353	0.5623	test subject(11);lab rat(3);rodent(2);tester(2);experiment(2);lackey(1);pin cushion(1);experimenter(1);person for test(1);disposable person(1);practice subject(1);sample(1);experimental subject(1);early tester(1);skinny pig(1);first one(1);cavy(1);lab animal(1);first to try(1);experimentee(1);experimental participant(1);go to(1);experimental test subject(1);volunteer to try something new(1)
half_sister	half_sister	half/a_sister/n	sister	half	18	4.7778	0.6468	2.8333	1.7235	2.8333	1.3394	half sibling(5);sister(5);sibling(5);step sister(2);relative(2);half relation(1);share one parent(1);uterine sibling(1);sibbling(1);same mother, different father(1);same father, different mother(1);one parent in common(1);step child(1);partial sibling(1);partial sister(1);sister from another parent(1);half brother(1);semi related female(1);not by blood(1);partial family(1);stepsister(1);brother from another mother(1);half related sister(1);different father(1);different mother(1);half biological sister(1);half genetic sister(1)
half_wit	half_wit	half/a_wit/n	wit	half	17	1.3529	1.3666	1.2941	1.3117	0.8235	1.0744	idiot(8);stupid(3);nitwit(3);dimwit(3);dummy(3);moron(2);nit wit(2);dim person(1);numbskull(1);blockhead(1);non thinking person(1);foolish(1);stupid man(1);goon(1);crock(1);imbecile(1);dumb(1);village idiot(1);dim wit(1);silly(1);fool(1);slow in wit(1);half intelligence(1);soft headed(1);simple(1);retard(1)
health_check	health_check	health/a_check/n	check	health	15	4.2000	1.3732	5.0000	0.0000	4.2667	0.8837	check up(6);health evaluation(3);checkup(3);doctor visit(3);physical(3);physical exam(2);wellness evaluation(1);doctors visit(1);doctors appointment(1);routine exam(1);health screenings(1);health check ups(1);health screening(1);exam(1);consultation(1);regular examination(1);work up(1);medical exam(1);health examination(1);health physical(1)
high_life	high_life	high/a_life/n	life	high	17	3.0588	1.7489	2.0588	1.4778	1.7647	1.2515	good life(7);glamorous life(2);high society(2);expensive(2);posh life(1);dolce vita(1);high on the hog(1);expensive lifestyle(1);indulgent living(1);life on top(1);living it up(1);rich(1);powerful(1);high times(1);expensive tastes(1);top(1);rich & famous(1);elegant(1);ritzy life(1);hgh horse(1);big life(1);extravagent(1);indulgence(1);easy life(1);happy life(1);glory(1);rich lifestyle(1);wealthy living(1);upper class(1);elite(1);lavish(1);luxurious(1)
inner_circle	inner_circle	inner/a_circle/n	circle	inner	17	1.1176	1.2690	3.1176	1.3639	1.4706	1.4194	close friends(3);club(3);in crowd(2);inner sanctum(2);inner group(2);close associates(2);inner friends(1);private circle(1);associates(1);inside group(1);sacred few(1);advisers(1);closest relationships(1);tightest circle(1);who we hangout with regularly(1);accointances(1);close people(1);private group(1);special people(1);squad(1);crew(1);close together(1);tight knit(1);cabal(1);people in the know(1);trusted circle(1);braintrust(1);infrastructure(1);trusted(1);close knit(1);secretive(1);lodge(1)
inner_product	inner_product	inner/a_product/n	product	inner	11	4.2727	1.5551	3.0000	1.6733	2.8182	1.7215	dot product(4);scalar product(4);vectors(1);calculation(1);result(1);product of matrix multiplication(1);algebraic operation(1);scalar function(1);inner multiples(1);central numerals(1);multiplication(1);scalar function of 2 vectors(1);product of magnitude between 2 vectors(1);middle multiple(1);middle product(1);inside solution(1);math expression(1);measure of inside angle(1)
insane_asylum	insane_asylum	insane/a_asylum/n	asylum	insane	18	3.7778	1.2628	4.0556	1.2590	3.8889	1.1318	mental hospital(6);mental institution(5);loony bin(4);psychiatric hospital(3);sanitorium(2);crazy house(2);looney bin(2);mad house(2);loonie house(1);psych ward(1);crazy asylum(1);insane hospital(1);instituionalized(1);committed(1);crazy farm(1);institution(1);asylum(1);mental health facility(1);psychiatric dwelling(1);rehabilitation center(1);nut house(1);mental insitution(1);madhouse(1);mental health institute(1)
insurance_company	insurance_company	insurance/a_company/n	company	insurance	18	4.8889	0.4714	5.0000	0.0000	5.0000	0.0000	insurance provider(6);insurer(4);insurance firm(4);insurance business(2);protection provider(1);insurance carrier(1);insurance(1);insurance supplier(1);accident payee(1);big company(1);premium seller(1);catastrophe bank(1);policy holder(1);lifeguard office(1);lien company(1);insurance agent(1);risk pooler(1);insurance place(1);company paying for accident(1);guarantor of payment(1);adjustment bureau(1);risk protection(1);coverage(1);policy maker(1);provider(1);insurance broker(1);policy company(1)
insurance_policy	insurance_policy	insurance/a_policy/n	policy	insurance	19	3.9474	1.4327	4.7368	0.6534	4.3684	0.8951	insurance plan(3);protection policy(2);insurance coverage(2);protection(2);insurance(2);policy(2);insurance document(2);safety net(2);insurance contract(2);coverage(2);policy against loss(1);disaster relief(1);security option(1);safeguard(1);warranty(1);insured liability(1);investment policy(1);insurance papers(1);backup plan(1);just in case(1);contingence policy(1);safety policy(1);property protection service(1);funds(1);healthcare coverage(1);agreement with insurance company(1);insurance statement(1);liability policy(1);contract to have a risk underwritten by another party(1);agreement for someone else to cover the cost of an unlikely possibility(1);uneccessary liability(1);uneeded costs(1);booklet(1)
iron_collar	iron_collar	iron/a_collar/n	collar	iron	12	4.2500	1.4848	4.2500	1.1382	4.1667	0.9374	metal collar(3);punishment collar(3);chains(3);iron ring(2);iron band(1);metal band(1);necklace(1);jelwelry(1);cuffs(1);iron bond(1);neck brace(1);slave collar(1);iron cuff(1);shackle(1);manacle(1);ring collar(1);iron choker(1);iron neckbond(1);execution(1);capital punishment(1)
labour_union	labour_union	labour/a_union/n	union	labour	17	4.8824	0.3321	4.7647	0.4372	4.7647	0.4372	organized labor(4);union(4);workers union(3);worker's union(3);trade union(2);labor organization(2);work union(2);workers organization(2);worker representatives(1);professional organization(1);workers defense(1);labor group(1);unionized workers(1);organization(1);committee(1);workers representative(1);workmen's union(1);labour organization(1);cooperative(1);guild(1);worker's association(1);bloc or unit of collective bargaining, of workers(1);organization of solidarity among a group of workers(1)
life_belt	life_belt	life/a_belt/n	belt	life	19	3.1053	1.7287	3.3158	1.2933	2.8421	1.6754	flotation device(8);life saver(7);life preserver(4);life jacket(4);life vest(3);seatbelt(2);flotation devise(1);life preserver.(1);buyoency device(1);safety strap(1);floation device(1);buoy(1);life ring(1);flotation belt(1);buckle(1);safety rope(1);harness(1);ski belt(1);floatation ring(1);life line(1)
life_vest	life_vest	life/a_vest/n	vest	life	16	4.1250	0.8062	3.3750	1.4549	3.6875	1.2500	flotation device(10);life jacket(9);life preserver(8);safety vest(2);floatation device(2);life saving pinny(1);emergency vest(1);floatation vest(1);buyoency device(1);life saver(1);safety device(1);personal flotation device(1);inflatable jacket(1)
lime_tree	lime_tree	lime/a_tree/n	tree	lime	16	5.0000	0.0000	4.8750	0.5000	4.8750	0.5000	citrus tree(11);fruit tree(7);lime plant(4);fruit bearing tree(2);linden(1);basswood(1);tree(1);plant(1);lime grove(1);tree that bears lime(1);tree that grows limes(1);tree producing limes(1);fruit(1);citrus(1)
loan_shark	loan_shark	loan/a_shark/n	shark	loan	17	0.4118	0.7123	4.7647	0.4372	0.8824	1.0537	lender(7);money lender(3);moneylender(3);usurer(2);gangster(2);bookie(2);shylock(2);banker(1);predatory lender(1);scam artist(1);money shark(1);loan gouger(1);high interest loan(1);expensive loan(1);criminal investor(1);usurious(1);high loan rates(1);loan office(1);greedy lender(1);unscrupulous lender(1);criminal banker(1);money broker(1);extortionist(1);loaner(1);bank(1);predator(1);aggressive(1)
loose_woman	loose_woman	loose/a_woman/n	woman	loose	19	4.8947	0.3153	2.2105	1.6526	2.5263	1.4670	whore(8);slut(8);promiscuous woman(4);hussy(3);harlot(3);tramp(2);prostitute(2);jezebel(2);floozy(2);easy woman(2);immoral woman(1);fast and loose(1);hore(1);nymphomaniac(1);easy girl(1);call girl(1);streetwalker(1);sexually promiscuous(1);woman who enjoys sex(1);willing to sleep around(1);promiscuous(1);slutty(1)
mail_service	mail_service	mail/a_service/n	service	mail	15	4.6000	0.6325	4.9333	0.2582	4.8000	0.4140	postal service(9);delivery service(6);post(2);mail order(1);mail carrier(1);snail mail(1);mail delivery(1);post delivery(1);letter delivery(1);mail provider(1);mail company(1);post office(1);mailbox(1);postal serivce(1);parcel serivce(1);usps(1);email(1);mail courrier(1);postal delivery service(1);courier service(1)
market_place	market_place	market/a_place/n	place	market	18	2.3889	2.0332	3.8333	1.2948	3.1111	1.6047	market(5);store(4);super market(2);business(2);shopping place(1);market square(1);trade street(1);financial market(1);market exchange(1);open market(1);exchange center(1);market store(1);street market(1);commerce(1);consumer market(1);market sector(1);business field(1);financial industry(1);retail industry(1);sales market(1);industry(1);sector(1);retailers(1);shopping center(1);mall(1);on the market(1);in stores(1);business market(1);grocery store(1)
mental_disorder	mental_disorder	mental/a_disorder/n	disorder	mental	16	5.0000	0.0000	5.0000	0.0000	5.0000	0.0000	mental illness(5);psychological disorder(3);mental disability(2);mental sickness(2);brain disease(2);mental imbalance(1);mental problems(1);mental handicap(1);mentally ill(1);phsyco(1);retardation(1);mentally disturbed(1);mentally challenged(1);psychological problems(1);psychological issue(1);emotional disorder(1);depression(1);schizophrenia(1);thinking disorder(1);mental insanity(1);mental case(1);psychotic disorders(1);psychological illness(1);metal illness(1);psychosis(1);craziness(1);insanity(1)
middle_school	middle_school	middle/a_school/n	school	middle	15	4.8667	0.5164	3.8000	1.1464	4.3333	0.8165	junior high(7);junior high school(6);secondary school(6);intermediate school(4);grade school(1);7th grade(1);8th grade(1);junior class(1);between grade & high(1);grades 6 8(1);pre high school(1);grades 7 and 8(1);school between elementary and high school(1);junior highschool(1);middle high(1)
milk_tooth	milk_tooth	milk/a_tooth/n	tooth	milk	18	5.0000	0.0000	0.8333	1.2485	1.2222	1.3086	baby teeth(10);baby tooth(8);first teeth(4);temporary tooth(3);primary teeth(1);little tooth(1);non permanent teeth(1);1st tooth(1);first set of teeth(1);molers(1);child's teeth(1);teeth(1);primary(1);toddler teeth(1);front teeth(1);first tooth(1);deciduous tooth(1);original teeth(1)
mother_tongue	mother_tongue	mother/a_tongue/n	tongue	mother	16	0.8750	1.3102	0.5625	0.8921	0.6250	0.8062	native language(11);first language(7);native tongue(3);birth language(2);primary language(2);language(2);person's original language(1);mother language(1);home language(1);first language spoken(1);primordial language spoken(1);familiar dialect(1);vocabulary(1);natural tongue(1);original language(1)
narrow_escape	narrow_escape	narrow/a_escape/n	escape	narrow	20	3.5000	1.6059	1.6500	1.3089	1.7500	1.3328	close call(13);close escape(4);quick escape(2);near miss(2);close shave(2);lucky escape(1);timely escape(1);avoided calamity(1);escape danger(1);barely escaped(1);barely escape(1);narrow chance(1);narrow opportunity(1);almost caught(1);difficult(1);near death experiance(1);life or death situation(1);split second decision(1);barely getting out(1);leaving(1);slim chance(1);barely missed(1);narrow call(1);narrow miss(1);excuse(1);lucky break(1);odds defying(1);near squeak(1);slim(1);scary(1)
net_income	net_income	net/a_income/n	income	net	15	4.7333	0.7037	2.2000	1.7809	3.0000	1.3628	profit(5);total income(3);net earnings(3);take home pay(2);income(2);positive income(1);net revenue(1);income after expenses(1);total take home money.(1);salary(1);bring home pay(1);gross income(1);total revenue(1);net gross(1);bottom line(1);net gain(1);net increase(1);net(1);before taxes(1);combined income(1);earnings(1);revenue(1)
news_agency	news_agency	news/a_agency/n	agency	news	15	4.2000	1.2071	4.9333	0.2582	4.7333	0.7037	newspaper(3);press(3);press agency(2);news channel(1);news source(1);reporting company(1);news provider(1);news organization(1);information reporting service(1);tv news(1);press organization(1);journalist group(1);news service(1);media outlet(1);news gathering organization(1);news group(1);beat(1);news company(1);news syndicate(1);news bureau(1);news outlet(1);reports(1);media(1);newsroom(1);journalists(1);network(1);news station(1);news building(1)
noble_gas	noble_gas	noble/a_gas/n	gas	noble	13	4.6923	0.8549	0.6154	0.9608	1.0000	1.1547	inert gas(4);stable gas(3);element(2);non reactive element(1);stable elements(1);nonreactive elements(1);neutral gas(1);elements(1);helium(1);krypton(1);radon(1);nonreactive element(1);ion(1);chemical element(1);unreactive(1);group 18(1);inert gases(1);unreactive gases(1);non reactive elements(1);non reactive gas(1);core elements(1);chemical elements(1);stable gases(1);periodic elements(1);chemical(1)
nut_case	nut_case	nut/a_case/n	case	nut	16	0.4375	1.0935	0.2500	0.5774	0.2500	0.4472	crazy(9);insane person(3);crazy person(3);lunatic(2);madman(2);unpredictable(2);head case(1);nut job(1);fruitcake(1);nutjob(1);crackpot(1);strange person(1);mental person(1);divergent(1);basket case(1);bonkers(1);psychotic(1);mental case(1);off the rails(1);wacko(1);crazy guy(1);person acting weird(1);really angry person(1)
old_flame	old_flame	old/a_flame/n	flame	old	17	0.3529	0.7859	2.9412	1.4778	0.4118	0.7123	ex(7);ex lover(3);past lover(2);old girlfriend(2);former lover(2);old love(2);old lover(2);exe(1);previous lover(1);prior lover(1);former girlfriend(1);previous paramour(1);ex lovers(1);ex boyfriend / girlfriend(1);old boyfriend/girlfriend(1);former sweetheart(1);old boyfriend(1);old crush(1);ex crush(1);old sweetheart(1);lost love(1);old romantic interest(1);boyfriend(1);girlfriend(1);former romantic partner(1);ex girlfriend(1);ex boyfriend(1);fling(1)
old_hat	old_hat	old/a_hat/n	hat	old	16	0.0625	0.2500	3.6875	1.3022	0.2500	0.4472	old fashioned(3);passe(3);old school(3);out of style(2);dated(2);predictable(2);ancient(2);familiar(2);old trick(1);old play(1);ubiquitous(1);yesterday's news(1);old fashion(1);outdated(1);vintage(1);taken for granted(1);clichã©(1);old news(1);antoquated(1);past its time(1);old timey(1);cliched(1);trite(1);cumbersome(1);routine(1);tritely familiar(1);obsolete(1)
old_timer	old_timer	old/a_timer/n	timer	old	17	0.6471	1.1147	3.7059	1.6869	0.6471	1.1147	old person(6);elderly(6);old man(3);senior citizen(3);experienced(3);geezer(1);fogy(1);old soldier(1);mature persons(1);aged(1);mature adults(1);experienced person(1);older people(1);doing something many times(1);well versed(1);knowledgable(1);elder(1);long time member(1);around for a while(1);wise(1);veterans(1);old folk(1);senior(1);old hat(1)
phone_book	phone_book	phone/a_book/n	book	phone	19	4.4211	1.0174	4.2632	0.8719	4.3158	0.7493	yellow pages(8);directory(6);white pages(3);address book(3);phone directory(2);telephone directory(2);phone listings(2);telephone book(1);listing(1);inventory of numbers(1);yellow book(1);telephone guide(1);telephone listings(1);restaurant listings(1);number database(1);contact info(1);people info(1);contact book(1);phone contacts(1);telephone number reference(1);phone pages(1);business catalog(1);contact list(1);phone numbers(1)
pillow_slip	pillow_slip	pillow/a_slip/n	slip	pillow	18	3.2778	1.7424	4.6111	0.6978	4.0000	1.0847	pillow case(11);pillow cover(10);bed linen(2);pillowcase(2);sham(2);pillow sheet(1);pillow cases(1);pillow covers(1);linen(1);cover for pillows(1);cover for pillow(1);pillow covering(1);pillow blanketq(1);pillow sham(1);bed spread(1);pillow linen(1);cushion slip(1)
pocket_book	pocket_book	pocket/a_book/n	book	pocket	19	1.8947	1.9118	1.8421	1.1187	1.3158	1.2043	wallet(11);purse(10);budget(3);handbag(2);billfold(2);journal(2);checkbook(2);notebook(2);coin purse(1);small book(1);condensed publication(1);diary(1);bill fold(1);note book(1);message book(1);day planner(1);carry bag(1);book fits in pocket(1);hand bag(1);mini book(1)
prison_guard	prison_guard	prison/a_guard/n	guard	prison	14	4.8571	0.3631	4.9286	0.2673	5.0000	0.0000	correctional officer(4);corrections officer(3);jail guard(3);guard(2);jailhouse guard(1);safety officer(1);security officer(1);maton(1);prison police(1);night guard(1);prison wardon(1);jail man(1);warden(1);policeman(1);security(1);orderly(1);jailer(1);overseer(1);prison keep(1);jail keeper(1);penal officer(1);person watching over prison(1);keep prisoners there(1);prison warden(1)
prison_term	prison_term	prison/a_term/n	term	prison	15	4.6000	0.6325	4.9333	0.2582	5.0000	0.0000	prison sentence(5);jail time(5);jail sentence(4);sentence(4);jail term(3);incarceration(3);punishment(2);prison time(2);behind bars(1);incarceration period(1);criminal captivity(1);term(1);sent to jail(1);sentance(1);period of incarceration(1);prision sentence(1);hard time(1)
private_eye	private_eye	private/a_eye/n	eye	private	15	0.4000	1.0556	2.8667	1.2459	0.5333	0.8338	detective(10);private investigator(8);investigator(5);gumshoe(2);private dick(2);private detective(2);private surveilence(1);hired detective(1);independent investegator(1);sleuth(1);spy(1)
record_book	record_book	record/a_book/n	book	record	17	3.7059	1.6869	4.4706	0.8745	3.9412	1.0880	ledger(4);log book(4);log(3);journal(2);register(2);record log(2);spreadsheet(2);document(2);record pamphlet(1);permanent record(1);record file(1);directory(1);diary(1);account book(1);official record(1);day book(1);record data(1);written document(1);interaction log(1);data spreadsheet(1);notebook(1);guest book(1);calendar(1);kept records(1);recordings file(1);written record(1);signed record(1)
research_lab	research_lab	research/a_lab/n	lab	research	16	4.7500	0.5774	4.8750	0.3416	4.7500	0.4472	laboratory(6);research facility(5);science lab(4);scientific laboratory(2);testing lab(2);research building(1);research center(1);resesarch facility(1);testing room(1);science room(1);study lab(1);research room(1);work lab(1);research and development(1);research team(1);lab(1);lab for studies(1);group studying(1);science experiment(1);testing facility(1);study center(1);incubator(1);research laboratory(1)
sex_bomb	sex_bomb	sex/a_bomb/n	bomb	sex	17	0.1765	0.5286	2.8824	1.7278	0.4118	0.7123	sex symbol(4);sexy person(2);bombshell(2);bomb shell(2);vixen(2);sex magnet(1);sex doll(1);sex kitten(1);sexy woman(1);beautiful woman(1);hot girl(1);hot chick(1);hot person(1);attractive(1);poster girl(1);pin up(1);sex pot(1);vamp(1);fox(1);aphrodisiac oils(1);beautiful(1);sexy lady(1);attractive woman(1);ingenue(1);sex siren(1);gorgeous(1);amazing(1);hottie(1);good looking person(1);really sexy person(1);sex champ(1);siren(1);beauty(1)
silver_lining	silver_lining	silver/a_lining/n	lining	silver	18	0.2222	0.4278	0.1667	0.3835	0.2222	0.4278	bright side(6);good news(2);good thing(2);something good(1);brightside(1);good things(1);hopeful prospect(1);unforeseen advantage(1);positive outcome(1);happy ending(1);positive(1);optmistic(1);good side(1);unexpected good results(1);positive view(1);one positive(1);gold(1);tender mercy(1);up side(1);big picture(1);prospect(1);glass half full(1);optimistic outlook(1);best part(1);silver meaning bright(1);lining as in side(1);fluke(1);positive outlook(1);good part of something bad(1);good result(1);unexpected good result(1);good result to compensate for a bad one(1);fact is(1);on the other hand(1)
sound_judgement	sound_judgement	sound/a_judgement/n	judgement	sound	14	4.2857	0.9139	2.4286	1.6968	3.6429	1.0818	good judgment(3);good judgement(2);good reasoning(2);reasonable judgment(2);logical reasoning(2);wisdom(2);sensible(2);proper judgement(1);trustworthy judgement(1);sound reasoning(1);good decision(1);fair(1);thoughtful judgment(1);sound mind(1);tact(1);sound decision(1);reason(1);logic(1);correct judgement(1);right judgement(1);sound assesment(1);careful evaluation and thought(1);solid understanding of the work(1);good sense(1);competent(1)
sparkling_water	sparkling_water	sparkling/a_water/n	water	sparkling	20	4.7500	0.7164	2.7500	1.5174	3.2000	1.3219	carbonated water(7);fizzy water(6);soda water(5);tonic water(4);bubbly water(4);seltzer(4);club soda(4);seltzer water(2);soda(2);mineral water(1);water with gas(1);bubbling water(1);soft drink(1);tonic(1);water(1);bubbly(1);fizzy watter(1)
street_girl	street_girl	street/a_girl/n	girl	street	16	4.5625	0.8921	3.0000	1.3663	3.5000	1.0954	prostitute(10);hooker(5);street walker(3);homeless girl(3);street urchin(2);streetwalker(2);homeless(2);bum(2);call girls(1);whore(1);sex trade worker(1);prostitutes(1);hustler(1);homeless woman(1);street kid(1)
subway_system	subway_system	subway/a_system/n	system	subway	15	4.6000	0.6325	4.6667	0.4880	4.6667	0.4880	metro(4);train system(3);tube(3);underground(2);public transportation(2);train station(2);metro system(1);underground system(1);rail system(1);underground transport(1);subway tunnels(1);public transit(1);subway line(1);railway(1);transportation(1);transport network(1);city transportation(1);moving around(1);underground railway(1);underground train(1);underground public transit(1);metro rail(1);subway rail system(1);train(1);railroad(1)
tennis_elbow	tennis_elbow	tennis/a_elbow/n	elbow	tennis	17	4.2941	1.3585	2.0588	1.7128	2.3529	1.6934	sore elbow(5);tennis injury(5);lateral epicondylitis(4);elbow injury(4);sports injury(2);repetitive stress injury(1);tender elbow(1);injury(1);elbow bursistis(1);fracture(1);fragmentation(1);stiff elbow(1);broken elbow(1);elbow pain(1);elbow condition(1);elbow strain(1);epicondylitis(1);forearm overuse(1);elbow tendon pain(1);tendinitis(1);tendonitis(1);sports inury(1);arm injury(1)
top_dog	top_dog	top/a_dog/n	dog	top	18	0.3889	0.6978	4.0000	1.2834	0.9444	1.2590	boss(5);leader(5);best(4);number one(3);head honcho(2);king of the hill(2);greatest(2);head cheese(1);big kahuna(1);big cheese(1);important(1);main man(1);person in charge(1);most knowledgeable person(1);top of the heap(1);number one.(1);succesful(1);top person(1);first ranked(1);winner(1);big dog(1);honcho(1);in charge(1);decision maker(1);dominant person(1);person at top(1);alpha male(1)
wet_blanket	wet_blanket	wet/a_blanket/n	blanket	wet	18	0.2222	0.4278	0.2222	0.4278	0.1111	0.3234	party pooper(9);debbie downer(3);boring(2);grouch(2);downer(2);no fun(2);stick in the mud(2);party crasher(1);fun spoiler(1);spoiler(1);crasher(1);sad boy(1);miser(1);realistic(1);straight laced(1);bland(1);miserable(1);grinch(1);spoil sport(1);naysayer(1);conservative(1);rule follower(1);killjoy(1);buzzkill(1);lame(1);loser(1);failure(1);sad sack(1)
word_painting	word_painting	word/a_painting/n	painting	word	11	0.4545	0.6876	3.0909	1.7581	1.4545	1.2933	tone painting(3);text painting(3);musical meaning(1);emotion of music(1);music(1);talking music(1);musical delivery(1);word artistry(1);clever usage(1);poetry(1);creative writing(1);language arts(1);evocative words(1);description(1);imbue with feeling through word choice(1);music writing(1);meaning depiction(1);intense description(1);vivid description(1);minds eye image(1)
